{
  "page": "1",
  "per_page": 15,
  "pages": 50,
  "total": 750,
  "shots": [{
    "id": 1697826,
    "title": "Dribbble Shot2",
    "description": "\u003Cp\u003ECheck out details on Behance http://bit.ly/1pTQCMk \n\u003Cbr /\u003EIllustrations by @Irena Zablotska\u003C/p\u003E",
    "height": 600,
    "width": 800,
    "likes_count": 1,
    "comments_count": 0,
    "rebounds_count": 0,
    "url": "http://dribbble.com/shots/1697826-Dribbble-Shot2",
    "short_url": "http://drbl.in/mdUA",
    "views_count": 2,
    "rebound_source_id": null,
    "image_url": "https://d13yacurqjgara.cloudfront.net/users/24407/screenshots/1697826/dribbble_shot2.png",
    "image_teaser_url": "https://d13yacurqjgara.cloudfront.net/users/24407/screenshots/1697826/dribbble_shot2_teaser.png",
    "image_400_url": "https://d13yacurqjgara.cloudfront.net/users/24407/screenshots/1697826/dribbble_shot2_1x.png",
    "player": {
      "id": 24407,
      "name": "keepa",
      "location": "Lviv, Ukraine",
      "followers_count": 510,
      "draftees_count": 3,
      "likes_count": 256,
      "likes_received_count": 1823,
      "comments_count": 28,
      "comments_received_count": 92,
      "rebounds_count": 3,
      "rebounds_received_count": 0,
      "url": "http://dribbble.com/keepa",
      "avatar_url": "https://d13yacurqjgara.cloudfront.net/users/24407/avatars/normal/keepa.png?1350647566",
      "username": "keepa",
      "twitter_screen_name": "hellokeepa",
      "website_url": "https://www.behance.net/keepa",
      "drafted_by_player_id": 35211,
      "shots_count": 81,
      "following_count": 233,
      "created_at": "2011/03/20 04:58:21 -0400"
    },
    "created_at": "2014/08/25 04:47:29 -0400"
  }, {
    "id": 1697823,
    "title": "Dribble invites",
    "description": "\u003Cp\u003E2 Dribbble invites for 2 awesome prospects\u003C/p\u003E",
    "height": 600,
    "width": 800,
    "likes_count": 1,
    "comments_count": 0,
    "rebounds_count": 0,
    "url": "http://dribbble.com/shots/1697823-Dribble-invites",
    "short_url": "http://drbl.in/mdUx",
    "views_count": 7,
    "rebound_source_id": null,
    "image_url": "https://d13yacurqjgara.cloudfront.net/users/12394/screenshots/1697823/invites.png",
    "image_teaser_url": "https://d13yacurqjgara.cloudfront.net/users/12394/screenshots/1697823/invites_teaser.png",
    "image_400_url": "https://d13yacurqjgara.cloudfront.net/users/12394/screenshots/1697823/invites_1x.png",
    "player": {
      "id": 12394,
      "name": "Ismail Pelaseyed",
      "location": "Gothenburg, Sweden",
      "followers_count": 69,
      "draftees_count": 1,
      "likes_count": 62,
      "likes_received_count": 211,
      "comments_count": 7,
      "comments_received_count": 20,
      "rebounds_count": 0,
      "rebounds_received_count": 0,
      "url": "http://dribbble.com/pelaseyed",
      "avatar_url": "https://d13yacurqjgara.cloudfront.net/users/12394/avatars/normal/317776_10150390872446480_1816662362_n.jpg?1369030289",
      "username": "pelaseyed",
      "twitter_screen_name": "pelaseyed",
      "website_url": "http://www.keycrunch.com",
      "drafted_by_player_id": 79854,
      "shots_count": 16,
      "following_count": 389,
      "created_at": "2011/01/20 05:45:23 -0500"
    },
    "created_at": "2014/08/25 04:44:01 -0400"
  }, {
    "id": 1697822,
    "title": "PRO Membership Giveaway",
    "description": "\u003Cp\u003EOk so I decided to give somebody a one year PRO membership/subscription. \u003C/p\u003E\n\n\u003Cp\u003EHere are the rules:\u003C/p\u003E\n\n\u003Cp\u003E1. Follow me\n\u003Cbr /\u003E2. Like this shot (So I would know who enters the competition)\n\u003Cbr /\u003E3. Share (twitter, facebook, wherever you want) :-)\u003C/p\u003E\n\n\u003Cp\u003ETo give everyone equal chances the winner will be chosen via Random.org. That's why it's important to like the shot so I can add you in the list when I will be choosing the winner. If you don't like the shot I can't add you to the draw.\u003C/p\u003E\n\n\u003Cp\u003EI will choose the winner in about 2-3 weeks. I will be giving more of these in the future so feel free to follow me to be updated :-)\u003C/p\u003E\n\n\u003Cp\u003ECheers and good luck !\u003C/p\u003E",
    "height": 600,
    "width": 800,
    "likes_count": 2,
    "comments_count": 0,
    "rebounds_count": 0,
    "url": "http://dribbble.com/shots/1697822-PRO-Membership-Giveaway",
    "short_url": "http://drbl.in/mdUw",
    "views_count": 14,
    "rebound_source_id": null,
    "image_url": "https://d13yacurqjgara.cloudfront.net/users/380831/screenshots/1697822/pro-membership-dribbble.png",
    "image_teaser_url": "https://d13yacurqjgara.cloudfront.net/users/380831/screenshots/1697822/pro-membership-dribbble_teaser.png",
    "image_400_url": "https://d13yacurqjgara.cloudfront.net/users/380831/screenshots/1697822/pro-membership-dribbble_1x.png",
    "player": {
      "id": 380831,
      "name": "Robert Berki",
      "location": "Oradea / Romania",
      "followers_count": 145,
      "draftees_count": 2,
      "likes_count": 1234,
      "likes_received_count": 241,
      "comments_count": 108,
      "comments_received_count": 35,
      "rebounds_count": 0,
      "rebounds_received_count": 1,
      "url": "http://dribbble.com/robertbrk",
      "avatar_url": "https://d13yacurqjgara.cloudfront.net/users/380831/avatars/normal/avatar.png?1397100203",
      "username": "robertbrk",
      "twitter_screen_name": "robert_ktf",
      "website_url": "http://89colors.com",
      "drafted_by_player_id": 146145,
      "shots_count": 20,
      "following_count": 34,
      "created_at": "2013/08/05 06:55:20 -0400"
    },
    "created_at": "2014/08/25 04:42:37 -0400"
  }, {
    "id": 1697821,
    "title": "Inspire",
    "description": "\u003Cp\u003E08.25.14\u003C/p\u003E\n\n\u003Cp\u003EWallpaper Included\u003C/p\u003E",
    "height": 600,
    "width": 800,
    "likes_count": 2,
    "comments_count": 0,
    "rebounds_count": 0,
    "url": "http://dribbble.com/shots/1697821-Inspire",
    "short_url": "http://drbl.in/mdUv",
    "views_count": 13,
    "rebound_source_id": null,
    "image_url": "https://d13yacurqjgara.cloudfront.net/users/139593/screenshots/1697821/dribbble_lettering_13.jpg",
    "image_teaser_url": "https://d13yacurqjgara.cloudfront.net/users/139593/screenshots/1697821/dribbble_lettering_13_teaser.jpg",
    "image_400_url": "https://d13yacurqjgara.cloudfront.net/users/139593/screenshots/1697821/dribbble_lettering_13_1x.jpg",
    "player": {
      "id": 139593,
      "name": "Tyler Somers",
      "location": "San Francisco, CA",
      "followers_count": 536,
      "draftees_count": 4,
      "likes_count": 453,
      "likes_received_count": 1908,
      "comments_count": 95,
      "comments_received_count": 156,
      "rebounds_count": 7,
      "rebounds_received_count": 7,
      "url": "http://dribbble.com/tylersomers",
      "avatar_url": "https://d13yacurqjgara.cloudfront.net/users/139593/avatars/normal/logo_icon.png?1389656081",
      "username": "tylersomers",
      "twitter_screen_name": "tcsomers",
      "website_url": "http://tylersomers.com",
      "drafted_by_player_id": 58123,
      "shots_count": 53,
      "following_count": 224,
      "created_at": "2012/04/28 19:19:07 -0400"
    },
    "created_at": "2014/08/25 04:41:48 -0400"
  }, {
    "id": 1697820,
    "title": "But mom, it's on sale!",
    "description": "\u003Cp\u003EAdmittedly, I did not expect to go into such detail when making this but got a little carried away. Lots of fun. Really excited for Fall/October and binging on horror movies and candy.\u003C/p\u003E",
    "height": 600,
    "width": 800,
    "likes_count": 0,
    "comments_count": 0,
    "rebounds_count": 0,
    "url": "http://dribbble.com/shots/1697820-But-mom-it-s-on-sale",
    "short_url": "http://drbl.in/mdUu",
    "views_count": 1,
    "rebound_source_id": null,
    "image_url": "https://d13yacurqjgara.cloudfront.net/users/231426/screenshots/1697820/drrrrri.jpg",
    "image_teaser_url": "https://d13yacurqjgara.cloudfront.net/users/231426/screenshots/1697820/drrrrri_teaser.jpg",
    "image_400_url": "https://d13yacurqjgara.cloudfront.net/users/231426/screenshots/1697820/drrrrri_1x.jpg",
    "player": {
      "id": 231426,
      "name": "Josh Martin",
      "location": "Chicago, IL",
      "followers_count": 146,
      "draftees_count": 3,
      "likes_count": 1056,
      "likes_received_count": 421,
      "comments_count": 72,
      "comments_received_count": 42,
      "rebounds_count": 1,
      "rebounds_received_count": 0,
      "url": "http://dribbble.com/JawsMartin",
      "avatar_url": "https://d13yacurqjgara.cloudfront.net/users/231426/avatars/normal/7c9d5ed8750ce481ddcba2a05eab6fd6.jpg?1407249138",
      "username": "JawsMartin",
      "twitter_screen_name": "jawsmartin",
      "website_url": "http://www.jawsmartin.com",
      "drafted_by_player_id": 32394,
      "shots_count": 23,
      "following_count": 446,
      "created_at": "2012/11/03 02:54:01 -0400"
    },
    "created_at": "2014/08/25 04:40:06 -0400"
  }, {
    "id": 1697819,
    "title": "Fur seal ",
    "description": null,
    "height": 300,
    "width": 400,
    "likes_count": 4,
    "comments_count": 0,
    "rebounds_count": 0,
    "url": "http://dribbble.com/shots/1697819-Fur-seal",
    "short_url": "http://drbl.in/mdUt",
    "views_count": 4,
    "rebound_source_id": null,
    "image_url": "https://d13yacurqjgara.cloudfront.net/users/622814/screenshots/1697819/______.jpg",
    "image_teaser_url": "https://d13yacurqjgara.cloudfront.net/users/622814/screenshots/1697819/_______teaser.jpg",
    "player": {
      "id": 622814,
      "name": "Tanya Pugacheva",
      "location": "Russia, St. Petersburg",
      "followers_count": 31,
      "draftees_count": 0,
      "likes_count": 568,
      "likes_received_count": 153,
      "comments_count": 137,
      "comments_received_count": 13,
      "rebounds_count": 1,
      "rebounds_received_count": 0,
      "url": "http://dribbble.com/tanya_pugacheva",
      "avatar_url": "https://d13yacurqjgara.cloudfront.net/users/622814/avatars/normal/71874eb1e11cac3587d2a4c9589f5603.jpg?1407574857",
      "username": "tanya_pugacheva",
      "twitter_screen_name": null,
      "website_url": "http://Soon",
      "drafted_by_player_id": 371002,
      "shots_count": 11,
      "following_count": 75,
      "created_at": "2014/07/29 05:23:57 -0400"
    },
    "created_at": "2014/08/25 04:39:32 -0400"
  }, {
    "id": 1697818,
    "title": "Pieoneers Icons",
    "description": "\u003Cp\u003ECheck out details on Behance http://bit.ly/1pTQCMk\n\u003Cbr /\u003ELive site http://Pieoneers.com/\n\u003Cbr /\u003EIllustrations by @[69845:Irena Zablotska] \u003C/p\u003E",
    "height": 600,
    "width": 800,
    "likes_count": 3,
    "comments_count": 0,
    "rebounds_count": 0,
    "url": "http://dribbble.com/shots/1697818-Pieoneers-Icons",
    "short_url": "http://drbl.in/mdUs",
    "views_count": 21,
    "rebound_source_id": null,
    "image_url": "https://d13yacurqjgara.cloudfront.net/users/24407/screenshots/1697818/dribbble_shot1.png",
    "image_teaser_url": "https://d13yacurqjgara.cloudfront.net/users/24407/screenshots/1697818/dribbble_shot1_teaser.png",
    "image_400_url": "https://d13yacurqjgara.cloudfront.net/users/24407/screenshots/1697818/dribbble_shot1_1x.png",
    "player": {
      "id": 24407,
      "name": "keepa",
      "location": "Lviv, Ukraine",
      "followers_count": 510,
      "draftees_count": 3,
      "likes_count": 256,
      "likes_received_count": 1823,
      "comments_count": 28,
      "comments_received_count": 92,
      "rebounds_count": 3,
      "rebounds_received_count": 0,
      "url": "http://dribbble.com/keepa",
      "avatar_url": "https://d13yacurqjgara.cloudfront.net/users/24407/avatars/normal/keepa.png?1350647566",
      "username": "keepa",
      "twitter_screen_name": "hellokeepa",
      "website_url": "https://www.behance.net/keepa",
      "drafted_by_player_id": 35211,
      "shots_count": 81,
      "following_count": 233,
      "created_at": "2011/03/20 04:58:21 -0400"
    },
    "created_at": "2014/08/25 04:39:01 -0400"
  }, {
    "id": 1697817,
    "title": "Horoscope Application - Profile",
    "description": "\u003Cp\u003ECheck the attachment for full page view !!!\u003C/p\u003E",
    "height": 600,
    "width": 800,
    "likes_count": 3,
    "comments_count": 0,
    "rebounds_count": 0,
    "url": "http://dribbble.com/shots/1697817-Horoscope-Application-Profile",
    "short_url": "http://drbl.in/mdUr",
    "views_count": 23,
    "rebound_source_id": 1688517,
    "image_url": "https://d13yacurqjgara.cloudfront.net/users/153988/screenshots/1697817/horoscopeapp3.png",
    "image_teaser_url": "https://d13yacurqjgara.cloudfront.net/users/153988/screenshots/1697817/horoscopeapp3_teaser.png",
    "image_400_url": "https://d13yacurqjgara.cloudfront.net/users/153988/screenshots/1697817/horoscopeapp3_1x.png",
    "player": {
      "id": 153988,
      "name": "Reznik | Creative Interactive",
      "location": "bangalore, karnataka",
      "followers_count": 1557,
      "draftees_count": 2,
      "likes_count": 16413,
      "likes_received_count": 2475,
      "comments_count": 555,
      "comments_received_count": 276,
      "rebounds_count": 4,
      "rebounds_received_count": 4,
      "url": "http://dribbble.com/reznikumar",
      "avatar_url": "https://d13yacurqjgara.cloudfront.net/users/153988/avatars/normal/Rezimg.jpg?1348300750",
      "username": "reznikumar",
      "twitter_screen_name": null,
      "website_url": "http://www.creativeinteractive.in",
      "drafted_by_player_id": 115435,
      "shots_count": 50,
      "following_count": 282,
      "created_at": "2012/05/26 12:22:14 -0400"
    },
    "created_at": "2014/08/25 04:38:30 -0400"
  }, {
    "id": 1697816,
    "title": "Tokyo Mobile Game Night",
    "description": "\u003Cp\u003ELanding page for an upcoming event\n\u003Cbr /\u003EFull site @ http://www.metaps.com/tmgn/\u003C/p\u003E",
    "height": 600,
    "width": 800,
    "likes_count": 0,
    "comments_count": 0,
    "rebounds_count": 0,
    "url": "http://dribbble.com/shots/1697816-Tokyo-Mobile-Game-Night",
    "short_url": "http://drbl.in/mdUq",
    "views_count": 1,
    "rebound_source_id": null,
    "image_url": "https://d13yacurqjgara.cloudfront.net/users/368985/screenshots/1697816/tgmn.png",
    "image_teaser_url": "https://d13yacurqjgara.cloudfront.net/users/368985/screenshots/1697816/tgmn_teaser.png",
    "image_400_url": "https://d13yacurqjgara.cloudfront.net/users/368985/screenshots/1697816/tgmn_1x.png",
    "player": {
      "id": 368985,
      "name": "Scott Greenwald",
      "location": "Tokyo, Japan",
      "followers_count": 54,
      "draftees_count": 1,
      "likes_count": 101,
      "likes_received_count": 159,
      "comments_count": 13,
      "comments_received_count": 24,
      "rebounds_count": 0,
      "rebounds_received_count": 0,
      "url": "http://dribbble.com/scottgreenwald",
      "avatar_url": "https://d13yacurqjgara.cloudfront.net/users/368985/avatars/normal/scottgreenwald151e569ea11441.png?1373989426",
      "username": "scottgreenwald",
      "twitter_screen_name": "greendezine",
      "website_url": "http://scottg.dunked.com/",
      "drafted_by_player_id": 102958,
      "shots_count": 12,
      "following_count": 29,
      "created_at": "2013/07/16 09:41:26 -0400"
    },
    "created_at": "2014/08/25 04:38:10 -0400"
  }, {
    "id": 1697814,
    "title": "Jiffy Career",
    "description": "\u003Cp\u003ECompany where I working ask me to create a homepage design. Here is what I come up with. \u003C/p\u003E",
    "height": 600,
    "width": 800,
    "likes_count": 0,
    "comments_count": 0,
    "rebounds_count": 0,
    "url": "http://dribbble.com/shots/1697814-Jiffy-Career",
    "short_url": "http://drbl.in/mdUo",
    "views_count": 4,
    "rebound_source_id": null,
    "image_url": "https://d13yacurqjgara.cloudfront.net/users/157353/screenshots/1697814/jiffy_career_thumb.jpg",
    "image_teaser_url": "https://d13yacurqjgara.cloudfront.net/users/157353/screenshots/1697814/jiffy_career_thumb_teaser.jpg",
    "image_400_url": "https://d13yacurqjgara.cloudfront.net/users/157353/screenshots/1697814/jiffy_career_thumb_1x.jpg",
    "player": {
      "id": 157353,
      "name": "Kharisma Cendhika Putra",
      "location": "Yogyakarta, Indonesia",
      "followers_count": 23,
      "draftees_count": 0,
      "likes_count": 29,
      "likes_received_count": 74,
      "comments_count": 23,
      "comments_received_count": 25,
      "rebounds_count": 0,
      "rebounds_received_count": 0,
      "url": "http://dribbble.com/cendhika",
      "avatar_url": "https://d13yacurqjgara.cloudfront.net/users/157353/avatars/normal/AVATAR.jpg?1392986793",
      "username": "cendhika",
      "twitter_screen_name": "cendhika",
      "website_url": "http://cendhika.com",
      "drafted_by_player_id": 33073,
      "shots_count": 4,
      "following_count": 23,
      "created_at": "2012/06/02 08:26:32 -0400"
    },
    "created_at": "2014/08/25 04:36:07 -0400"
  }, {
    "id": 1697813,
    "title": "adventure boy",
    "description": "\u003Cp\u003Ehttps://www.behance.net/gallery/3756854/Vector_Artwork\u003C/p\u003E",
    "height": 300,
    "width": 400,
    "likes_count": 2,
    "comments_count": 0,
    "rebounds_count": 0,
    "url": "http://dribbble.com/shots/1697813-adventure-boy",
    "short_url": "http://drbl.in/mdUn",
    "views_count": 13,
    "rebound_source_id": null,
    "image_url": "https://d13yacurqjgara.cloudfront.net/users/75386/screenshots/1697813/f9ccb8e6148f0056e92c026ad18f2ca1.jpg",
    "image_teaser_url": "https://d13yacurqjgara.cloudfront.net/users/75386/screenshots/1697813/f9ccb8e6148f0056e92c026ad18f2ca1_teaser.jpg",
    "player": {
      "id": 75386,
      "name": "Linh Nguyen",
      "location": "Ho Chi Minh City, Viet Nam",
      "followers_count": 14,
      "draftees_count": 0,
      "likes_count": 44,
      "likes_received_count": 100,
      "comments_count": 0,
      "comments_received_count": 4,
      "rebounds_count": 0,
      "rebounds_received_count": 0,
      "url": "http://dribbble.com/Osntear",
      "avatar_url": "https://d13yacurqjgara.cloudfront.net/users/75386/avatars/normal/f1db17996f46cf3e3ac9882cc24438b8.png?1408956236",
      "username": "Osntear",
      "twitter_screen_name": null,
      "website_url": "http://behance.net/osntear",
      "drafted_by_player_id": 39,
      "shots_count": 20,
      "following_count": 3,
      "created_at": "2011/11/13 22:13:30 -0500"
    },
    "created_at": "2014/08/25 04:34:43 -0400"
  }, {
    "id": 1697811,
    "title": "Crown Point Logo (C P Crown)",
    "description": "\u003Cp\u003ELogo option for wine company inspired from C + P + Crown\u003C/p\u003E",
    "height": 600,
    "width": 800,
    "likes_count": 0,
    "comments_count": 0,
    "rebounds_count": 0,
    "url": "http://dribbble.com/shots/1697811-Crown-Point-Logo-C-P-Crown",
    "short_url": "http://drbl.in/mdUl",
    "views_count": 0,
    "rebound_source_id": 1697806,
    "image_url": "https://d13yacurqjgara.cloudfront.net/users/149459/screenshots/1697811/crownpoint_1.jpg",
    "image_teaser_url": "https://d13yacurqjgara.cloudfront.net/users/149459/screenshots/1697811/crownpoint_1_teaser.jpg",
    "image_400_url": "https://d13yacurqjgara.cloudfront.net/users/149459/screenshots/1697811/crownpoint_1_1x.jpg",
    "player": {
      "id": 149459,
      "name": "Pritam Mendon",
      "location": "India",
      "followers_count": 8,
      "draftees_count": 0,
      "likes_count": 14,
      "likes_received_count": 42,
      "comments_count": 7,
      "comments_received_count": 14,
      "rebounds_count": 1,
      "rebounds_received_count": 1,
      "url": "http://dribbble.com/pritammendon",
      "avatar_url": "https://d13yacurqjgara.cloudfront.net/users/149459/avatars/normal/555326_10152599779555158_571545248_n.jpg?1377152131",
      "username": "pritammendon",
      "twitter_screen_name": "pritammendon",
      "website_url": null,
      "drafted_by_player_id": 17907,
      "shots_count": 4,
      "following_count": 5,
      "created_at": "2012/05/18 03:08:32 -0400"
    },
    "created_at": "2014/08/25 04:34:26 -0400"
  }, {
    "id": 1697810,
    "title": "P  - For Perch",
    "description": "\u003Cp\u003ETheres nothing more to say; p for perch\u003C/p\u003E",
    "height": 600,
    "width": 800,
    "likes_count": 2,
    "comments_count": 0,
    "rebounds_count": 0,
    "url": "http://dribbble.com/shots/1697810-P-For-Perch",
    "short_url": "http://drbl.in/mdUk",
    "views_count": 3,
    "rebound_source_id": null,
    "image_url": "https://d13yacurqjgara.cloudfront.net/users/310406/screenshots/1697810/pforperch.png",
    "image_teaser_url": "https://d13yacurqjgara.cloudfront.net/users/310406/screenshots/1697810/pforperch_teaser.png",
    "image_400_url": "https://d13yacurqjgara.cloudfront.net/users/310406/screenshots/1697810/pforperch_1x.png",
    "player": {
      "id": 310406,
      "name": "Alex Saunders",
      "location": "Hampshire UK",
      "followers_count": 20,
      "draftees_count": 0,
      "likes_count": 132,
      "likes_received_count": 67,
      "comments_count": 26,
      "comments_received_count": 21,
      "rebounds_count": 1,
      "rebounds_received_count": 0,
      "url": "http://dribbble.com/aliguy",
      "avatar_url": "https://d13yacurqjgara.cloudfront.net/users/310406/avatars/normal/dribblelogo2.png?1390594114",
      "username": "aliguy",
      "twitter_screen_name": "alexs_designer",
      "website_url": "http://www.unbotttled.com/portfolio",
      "drafted_by_player_id": 9104,
      "shots_count": 4,
      "following_count": 109,
      "created_at": "2013/04/04 09:37:56 -0400"
    },
    "created_at": "2014/08/25 04:33:48 -0400"
  }, {
    "id": 1697808,
    "title": "Index",
    "description": "\u003Cp\u003EHomepage Online Store by selling car radio\u003C/p\u003E",
    "height": 600,
    "width": 800,
    "likes_count": 1,
    "comments_count": 0,
    "rebounds_count": 0,
    "url": "http://dribbble.com/shots/1697808-Index",
    "short_url": "http://drbl.in/mdUi",
    "views_count": 8,
    "rebound_source_id": null,
    "image_url": "https://d13yacurqjgara.cloudfront.net/users/96388/screenshots/1697808/sidge_index.png",
    "image_teaser_url": "https://d13yacurqjgara.cloudfront.net/users/96388/screenshots/1697808/sidge_index_teaser.png",
    "image_400_url": "https://d13yacurqjgara.cloudfront.net/users/96388/screenshots/1697808/sidge_index_1x.png",
    "player": {
      "id": 96388,
      "name": "Alexi Ermakov",
      "location": "Russia, Samara",
      "followers_count": 50,
      "draftees_count": 0,
      "likes_count": 1179,
      "likes_received_count": 210,
      "comments_count": 21,
      "comments_received_count": 25,
      "rebounds_count": 0,
      "rebounds_received_count": 0,
      "url": "http://dribbble.com/alexiermakov",
      "avatar_url": "https://d13yacurqjgara.cloudfront.net/users/96388/avatars/normal/ava.jpg?1402263821",
      "username": "alexiermakov",
      "twitter_screen_name": "alexiermakov",
      "website_url": "http://sevencraft.ru",
      "drafted_by_player_id": 127596,
      "shots_count": 33,
      "following_count": 142,
      "created_at": "2012/01/27 02:28:00 -0500"
    },
    "created_at": "2014/08/25 04:30:54 -0400"
  }, {
    "id": 1697806,
    "title": "Crown Point Logo (Bottle \u0026 Glass Crown)",
    "description": "\u003Cp\u003ELogo option for wine company inspired from Wine bottle + Wine Glass + Crown\u003C/p\u003E",
    "height": 600,
    "width": 800,
    "likes_count": 1,
    "comments_count": 0,
    "rebounds_count": 1,
    "url": "http://dribbble.com/shots/1697806-Crown-Point-Logo-Bottle-Glass-Crown",
    "short_url": "http://drbl.in/mdUg",
    "views_count": 4,
    "rebound_source_id": null,
    "image_url": "https://d13yacurqjgara.cloudfront.net/users/149459/screenshots/1697806/crownpoint_2.jpg",
    "image_teaser_url": "https://d13yacurqjgara.cloudfront.net/users/149459/screenshots/1697806/crownpoint_2_teaser.jpg",
    "image_400_url": "https://d13yacurqjgara.cloudfront.net/users/149459/screenshots/1697806/crownpoint_2_1x.jpg",
    "player": {
      "id": 149459,
      "name": "Pritam Mendon",
      "location": "India",
      "followers_count": 8,
      "draftees_count": 0,
      "likes_count": 14,
      "likes_received_count": 42,
      "comments_count": 7,
      "comments_received_count": 14,
      "rebounds_count": 1,
      "rebounds_received_count": 1,
      "url": "http://dribbble.com/pritammendon",
      "avatar_url": "https://d13yacurqjgara.cloudfront.net/users/149459/avatars/normal/555326_10152599779555158_571545248_n.jpg?1377152131",
      "username": "pritammendon",
      "twitter_screen_name": "pritammendon",
      "website_url": null,
      "drafted_by_player_id": 17907,
      "shots_count": 4,
      "following_count": 5,
      "created_at": "2012/05/18 03:08:32 -0400"
    },
    "created_at": "2014/08/25 04:30:17 -0400"
  }]
}